percfound	mutrate	type	measure
0.92	0.1	direct	coverage
0.78	0.2	direct	coverage
0.64	0.4	direct	coverage
0.43	0.5	direct	coverage
0.38	0.6	direct	coverage
0.49	0.7	direct	coverage
0.45	0.8	direct	coverage
0.32	0.9	direct	coverage
1.00	0.1	direct	chi2
1.00	0.2	direct	chi2
1.00	0.4	direct	chi2
1.00	0.5	direct	chi2
1.00	0.6	direct	chi2
0.98	0.7	direct	chi2
0.94	0.8	direct	chi2
1.00	0.9	direct	chi2
0.53	0.1	direct	binomial
0.47	0.2	direct	binomial
0.54	0.4	direct	binomial
0.43	0.5	direct	binomial
0.38	0.6	direct	binomial
0.19	0.7	direct	binomial
0.06	0.8	direct	binomial
0.05	0.9	direct	binomial
0.53	0.1	direct	hypergeometric
0.47	0.2	direct	hypergeometric
0.54	0.4	direct	hypergeometric
0.43	0.5	direct	hypergeometric
0.38	0.6	direct	hypergeometric
0.19	0.7	direct	hypergeometric
0.07	0.8	direct	hypergeometric
0.05	0.9	direct	hypergeometric
0.77	0.1	undirect	coverage
0.70	0.2	undirect	coverage
0.47	0.4	undirect	coverage
0.37	0.5	undirect	coverage
0.27	0.6	undirect	coverage
0.33	0.7	undirect	coverage
0.26	0.8	undirect	coverage
0.32	0.9	undirect	coverage
1.00	0.1	undirect	chi2
1.00	0.2	undirect	chi2
1.00	0.4	undirect	chi2
1.00	0.5	undirect	chi2
1.00	0.6	undirect	chi2
1.00	0.7	undirect	chi2
1.00	0.8	undirect	chi2
0.98	0.9	undirect	chi2
0.65	0.1	undirect	binomial
0.67	0.2	undirect	binomial
0.70	0.4	undirect	binomial
0.46	0.5	undirect	binomial
0.57	0.6	undirect	binomial
0.35	0.7	undirect	binomial
0.21	0.8	undirect	binomial
0.03	0.9	undirect	binomial
0.65	0.1	undirect	hypergeometric
0.67	0.2	undirect	hypergeometric
0.70	0.4	undirect	hypergeometric
0.46	0.5	undirect	hypergeometric
0.57	0.6	undirect	hypergeometric
0.36	0.7	undirect	hypergeometric
0.21	0.8	undirect	hypergeometric
0.04	0.9	undirect	hypergeometric